…
G[S_vertex, ] # 534 same as part 1. That's good.
```

    # A tibble: 1 x 5
          V E         color     d    pi
      <int> <list>    <chr> <dbl> <dbl>
    1  3261 <dbl [3]> black   534  3424

``` r
# a bunch of a_vertices are white, i.e. not reachable from E??
G[a_vertices, ] %>% filter(color == "black") %>% arrange(d) # 525
```

    # A tibble: 424 x 5
           V E         color     d    pi
       <int> <list>    <chr> <dbl> <dbl>
     1  4728 <dbl [3]> black   525  4729
     2  4565 <dbl [3]> black   526  4728
     3  4891 <dbl [3]> black   526  4728
     4  4402 <dbl [3]> black   527  4565
     5  5054 <dbl [3]> black   527  4891
     6  4239 <dbl [3]> black   528  4402
     7  5217 <dbl [3]> black   528  5054
     8  4076 <dbl [3]> black   529  4239
     9  5380 <dbl [3]> black   529  5217
    10  3913 <dbl [3]> black   530  4076
    # ... with 414 more rows
